{
  "runtime": "Default",
  "swaggerGenerator": {
    "fromSwagger": {
      "url": "http://localhost:52553/swagger/v1/swagger.json",
      "output": null
    }
  },
  "codeGenerators": {
    "swaggerToTypeScriptClient": {
      "moduleName": "",
      "namespace": "",
      "typeScriptVersion": 2.9,
      "template": "Angular",
      "promiseType": "Promise",
      "httpClass": "HttpClient",
      "useSingletonProvider": false,
      "injectionTokenType": "InjectionToken",
      "rxJsVersion": 6.0,
      "dateTimeType": "MomentJS",
      "nullValue": "Undefined",
      "generateClientClasses": true,
      "generateClientInterfaces": false,
      "generateOptionalParameters": false,
      "wrapDtoExceptions": false,
      "wrapResponses": false,
      "generateResponseClasses": true,
      "responseClass": "SwaggerResponse",
      "useTransformOptionsMethod": false,
      "useTransformResultMethod": false,
      "generateDtoTypes": true,
      "operationGenerationMode": "MultipleClientsFromPathSegments",
      "markOptionalProperties": true,
      "generateCloneMethod": false,
      "typeStyle": "Class",
      "generateDefaultValues": true,
      "excludedTypeNames": [],
      "handleReferences": false,
      "generateConstructorInterface": true,
      "convertConstructorInterfaceData": false,
      "importRequiredTypes": true,
      "useGetBaseUrlMethod": false,
      "baseUrlTokenName": "API_BASE_URL",
      "queryNullValue": "",
      "output": "src/app/common/restclient/restClient.ts"
    }
  }
}
