<?xml version="1.0" encoding="utf-8"?>
<!-- Generator: Adobe Illustrator 16.0.0, SVG Export Plug-In . SVG Version: 6.00 Build 0)  -->
<!DOCTYPE svg PUBLIC "-//W3C//DTD SVG 1.1//EN" "http://www.w3.org/Graphics/SVG/1.1/DTD/svg11.dtd">
<svg version="1.1" id="Layer_1" xmlns="http://www.w3.org/2000/svg" xmlns:xlink="http://www.w3.org/1999/xlink" x="0px" y="0px"
	 width="24px" height="24px" viewBox="0 0 24 24" enable-background="new 0 0 24 24" xml:space="preserve">
<path fill="#2AACE2" d="M10.917,16.59l1.41,1.41l6-6l-6-6l-1.41,1.41l4.58,4.59L10.917,16.59z"/>
<path fill="#2AACE2" d="M5.083,16.59L6.493,18l6-6l-6-6l-1.41,1.41L9.663,12L5.083,16.59z"/>
<path fill="none" d="M0,0h24v24H0V0z"/>
</svg>
